cores/gmii2fifo18/test/test.vcd
$date
	Tue Jul 16 17:39:35 2013
$end
$version
	Icarus Verilog
$end
$timescale
	1s
$end
$scope module tb_gmii2fifo18 $end
$var wire 18 ! din [17:0] $end
$var wire 1 " wr_en $end
$var reg 12 # counter [11:0] $end
$var reg 1 $ cpci_clk $end
$var reg 1 % full $end
$var reg 1 & pci_clk $end
$var reg 1 ' phy_rx_clk $end
$var reg 1 ( phy_rx_dv $end
$var reg 8 ) phy_rxd [7:0] $end
$var reg 1 * phy_tx_clk $end
$var reg 1 + sys_clk $end
$var reg 1 , sys_rst $end
$scope module gmii2fifo18_tb $end
$var wire 18 - din [17:0] $end
$var wire 1 . full $end
$var wire 1 / gmii_rx_clk $end
$var wire 1 0 gmii_rx_dv $end
$var wire 8 1 gmii_rxd [7:0] $end
$var wire 1 2 sys_rst $end
$var wire 1 3 wr_clk $end
$var reg 4 4 gap_count [3:0] $end
$var reg 1 5 rxc $end
$var reg 18 6 rxd [17:0] $end
$var reg 2 7 state [1:0] $end
$var reg 8 8 wr_count [7:0] $end
$var reg 1 9 wr_en $end
$upscope $end
$scope task waitclock $end
$upscope $end
$upscope $end
$enddefinitions $end
#0
$dumpvars
x9
bx 8
bx 7
b0 6
05
b0 4
03
12
bx 1
x0
0/
0.
b0 -
1,
0+
0*
bx )
x(
0'
0&
0%
0$
b0 #
x"
b0 !
$end
#8
b0 7
b0 8
09
0"
b100 4
b1 #
0(
00
b0 )
b0 1
1*
1'
13
1/
1+
#16
0*
0'
03
0/
0+
1$
#24
b10 #
1*
1'
13
1/
1+
#25
0,
02
#30
1&
#32
0*
0'
03
0/
0+
0$
#40
b11 4
19
1"
b11 #
1*
1'
13
1/
1+
#48
0*
0'
03
0/
0+
1$
#56
b100 #
b10 4
19
1"
1*
1'
13
1/
1+
#60
0&
#64
0*
0'
03
0/
0+
0$
#72
b1 4
19
1"
b101 #
1*
1'
13
1/
1+
#80
0*
0'
03
0/
0+
1$
#88
b110 #
b0 4
19
1"
1*
1'
13
1/
1+
#90
1&
#96
0*
0'
03
0/
0+
0$
#104
09
0"
b111 #
1*
1'
13
1/
1+
#112
0*
0'
03
0/
0+
1$
#120
b1000 #
1*
1'
13
1/
1+
0&
#128
0*
0'
03
0/
0+
0$
#136
b1001 #
1*
1'
13
1/
1+
#144
0*
0'
03
0/
0+
1$
#150
1&
#152
b1010 #
1*
1'
13
1/
1+
#160
0*
0'
03
0/
0+
0$
#168
b1011 #
1*
1'
13
1/
1+
#176
0*
0'
03
0/
0+
1$
#180
0&
#184
b1100 #
1*
1'
13
1/
1+
#192
0*
0'
03
0/
0+
0$
#200
b1101 #
1*
1'
13
1/
1+
#208
0*
0'
03
0/
0+
1$
#210
1&
#216
b1110 #
1*
1'
13
1/
1+
#224
0*
0'
03
0/
0+
0$
#232
b1111 #
1*
1'
13
1/
1+
#240
0*
0'
03
0/
0+
1$
0&
#248
b10000 #
1*
1'
13
1/
1+
#256
0*
0'
03
0/
0+
0$
#264
b10001 #
1*
1'
13
1/
1+
#270
1&
#272
0*
0'
03
0/
0+
1$
#280
b10010 #
1*
1'
13
1/
1+
#288
0*
0'
03
0/
0+
0$
#296
b10011 #
1*
1'
13
1/
1+
#300
0&
#304
0*
0'
03
0/
0+
1$
#312
b10100 #
1*
1'
13
1/
1+
#320
0*
0'
03
0/
0+
0$
#328
b10101 #
1*
1'
13
1/
1+
#330
1&
#336
0*
0'
03
0/
0+
1$
#344
b10110 #
1*
1'
13
1/
1+
#352
0*
0'
03
0/
0+
0$
#360
b10111 #
1*
1'
13
1/
1+
0&
#368
0*
0'
03
0/
0+
1$
#376
b11000 #
1*
1'
13
1/
1+
#384
0*
0'
03
0/
0+
0$
#390
1&
#392
b11001 #
1*
1'
13
1/
1+
#400
0*
0'
03
0/
0+
1$
#408
b11010 #
1*
1'
13
1/
1+
#416
0*
0'
03
0/
0+
0$
#420
0&
#424
b11011 #
1*
1'
13
1/
1+
#432
0*
0'
03
0/
0+
1$
#440
b11100 #
1*
1'
13
1/
1+
#448
0*
0'
03
0/
0+
0$
#450
1&
#456
b11101 #
1*
1'
13
1/
1+
#464
0*
0'
03
0/
0+
1$
#472
b11110 #
1*
1'
13
1/
1+
#480
0*
0'
03
0/
0+
0$
0&
#488
b11111 #
1*
1'
13
1/
1+
#496
0*
0'
03
0/
0+
1$
#504
b100000 #
1*
1'
13
1/
1+
#510
1&
#512
0*
0'
03
0/
0+
0$
#520
b100001 #
1*
1'
13
1/
1+
#528
0*
0'
03
0/
0+
1$
#536
b100010 #
1*
1'
13
1/
1+
#540
0&
#544
0*
0'
03
0/
0+
0$
#552
b100011 #
1*
1'
13
1/
1+
#560
0*
0'
03
0/
0+
1$
#568
b100100 #
1*
1'
13
1/
1+
#570
1&
#576
0*
0'
03
0/
0+
0$
#584
b100101 #
1*
1'
13
1/
1+
#592
0*
0'
03
0/
0+
1$
#600
b100110 #
1*
1'
13
1/
1+
0&
#608
0*
0'
03
0/
0+
0$
#616
b100111 #
1*
1'
13
1/
1+
#624
0*
0'
03
0/
0+
1$
#630
1&
#632
b101000 #
1*
1'
13
1/
1+
#640
0*
0'
03
0/
0+
0$
#648
b101001 #
1*
1'
13
1/
1+
#656
0*
0'
03
0/
0+
1$
#660
0&
#664
b101010 #
1*
1'
13
1/
1+
#672
0*
0'
03
0/
0+
0$
#680
b101011 #
1*
1'
13
1/
1+
#688
0*
0'
03
0/
0+
1$
#690
1&
#696
b101100 #
1*
1'
13
1/
1+
#704
0*
0'
03
0/
0+
0$
#712
b101101 #
1*
1'
13
1/
1+
#720
0*
0'
03
0/
0+
1$
0&
#728
b101110 #
1*
1'
13
1/
1+
#736
0*
0'
03
0/
0+
0$
#744
b101111 #
1*
1'
13
1/
1+
#750
1&
#752
0*
0'
03
0/
0+
1$
#760
b110000 #
1*
1'
13
1/
1+
#768
0*
0'
03
0/
0+
0$
#776
b110001 #
1*
1'
13
1/
1+
#780
0&
#784
0*
0'
03
0/
0+
1$
#792
b110010 #
1*
1'
13
1/
1+
#800
0*
0'
03
0/
0+
0$
#808
b110011 #
1*
1'
13
1/
1+
#810
1&
#816
0*
0'
03
0/
0+
1$
#824
b110100 #
1*
1'
13
1/
1+
#832
0*
0'
03
0/
0+
0$
#840
b110101 #
1*
1'
13
1/
1+
0&
#848
0*
0'
03
0/
0+
1$
#856
b110110 #
1*
1'
13
1/
1+
#864
0*
0'
03
0/
0+
0$
#870
1&
#872
b110111 #
1*
1'
13
1/
1+
#880
0*
0'
03
0/
0+
1$
#888
b111000 #
1*
1'
13
1/
1+
#896
0*
0'
03
0/
0+
0$
#900
0&
#904
b111001 #
1*
1'
13
1/
1+
#912
0*
0'
03
0/
0+
1$
#920
b111010 #
1*
1'
13
1/
1+
#928
0*
0'
03
0/
0+
0$
#930
1&
#936
b111011 #
1*
1'
13
1/
1+
#944
0*
0'
03
0/
0+
1$
#952
b111100 #
1*
1'
13
1/
1+
#960
0*
0'
03
0/
0+
0$
0&
#968
b111101 #
1*
1'
13
1/
1+
#976
0*
0'
03
0/
0+
1$
#984
b111110 #
1*
1'
13
1/
1+
#990
1&
#992
0*
0'
03
0/
0+
0$
#1000
b111111 #
1*
1'
13
1/
1+
#1008
0*
0'
03
0/
0+
1$
#1016
b1000000 #
1*
1'
13
1/
1+
#1020
0&
#1024
0*
0'
03
0/
0+
0$
#1032
b1000001 #
1(
10
b1010101 )
b1010101 1
1*
1'
13
1/
1+
#1040
0*
0'
03
0/
0+
1$
#1048
b1000010 #
b100 4
1*
1'
13
1/
1+
#1050
1&
#1056
0*
0'
03
0/
0+
0$
#1064
b1000011 #
1*
1'
13
1/
1+
#1072
0*
0'
03
0/
0+
1$
#1080
b1000100 #
1*
1'
13
1/
1+
0&
#1088
0*
0'
03
0/
0+
0$
#1096
b1000101 #
1*
1'
13
1/
1+
#1104
0*
0'
03
0/
0+
1$
#1110
1&
#1112
b1000110 #
1*
1'
13
1/
1+
#1120
0*
0'
03
0/
0+
0$
#1128
b1000111 #
1*
1'
13
1/
1+
#1136
0*
0'
03
0/
0+
1$
#1140
0&
#1144
b1001000 #
b11010101 )
b11010101 1
1*
1'
13
1/
1+
#1152
0*
0'
03
0/
0+
0$
#1160
b1 7
b1001001 #
b11111111 )
b11111111 1
1*
1'
13
1/
1+
#1168
0*
0'
03
0/
0+
1$
#1170
1&
#1176
b1001010 #
b10 7
b101111111100000000 6
b101111111100000000 !
b101111111100000000 -
1*
1'
13
1/
1+
#1184
0*
0'
03
0/
0+
0$
#1192
b1 7
19
1"
b111111111111111111 6
b111111111111111111 !
b111111111111111111 -
b1001011 #
1*
1'
13
1/
1+
#1200
0*
0'
03
0/
0+
1$
0&
#1208
b1001100 #
b10 7
b101111111100000000 6
b101111111100000000 !
b101111111100000000 -
09
0"
1*
1'
13
1/
1+
#1216
0*
0'
03
0/
0+
0$
#1224
b1 7
19
1"
b111111111111111111 6
b111111111111111111 !
b111111111111111111 -
b1001101 #
1*
1'
13
1/
1+
#1230
1&
#1232
0*
0'
03
0/
0+
1$
#1240
b1001110 #
b10 7
b101111111100000000 6
b101111111100000000 !
b101111111100000000 -
09
0"
1*
1'
13
1/
1+
#1248
0*
0'
03
0/
0+
0$
#1256
b1 7
19
1"
b111111111111111111 6
b111111111111111111 !
b111111111111111111 -
b1001111 #
b0 )
b0 1
1*
1'
13
1/
1+
#1260
0&
#1264
0*
0'
03
0/
0+
1$
#1272
b1010000 #
b110000 )
b110000 1
b10 7
b100000000000000000 6
b100000000000000000 !
b100000000000000000 -
09
0"
1*
1'
13
1/
1+
#1280
0*
0'
03
0/
0+
0$
#1288
b1 7
19
1"
b110000000000110000 6
b110000000000110000 !
b110000000000110000 -
b1010001 #
b11011 )
b11011 1
1*
1'
13
1/
1+
#1290
1&
#1296
0*
0'
03
0/
0+
1$
#1304
b1010010 #
b10100000 )
b10100000 1
b10 7
b100001101100000000 6
b100001101100000000 !
b100001101100000000 -
09
0"
1*
1'
13
1/
1+
#1312
0*
0'
03
0/
0+
0$
#1320
b1 7
19
1"
b110001101110100000 6
b110001101110100000 !
b110001101110100000 -
b1010011 #
b10100100 )
b10100100 1
1*
1'
13
1/
1+
0&
#1328
0*
0'
03
0/
0+
1$
#1336
b1010100 #
b10001110 )
b10001110 1
b10 7
b101010010000000000 6
b101010010000000000 !
b101010010000000000 -
09
0"
1*
1'
13
1/
1+
#1344
0*
0'
03
0/
0+
0$
#1350
1&
#1352
b1 7
19
1"
b111010010010001110 6
b111010010010001110 !
b111010010010001110 -
b1010101 #
b1000 )
b1000 1
1*
1'
13
1/
1+
#1360
0*
0'
03
0/
0+
1$
#1368
b1010110 #
b110 )
b110 1
b10 7
b100000100000000000 6
b100000100000000000 !
b100000100000000000 -
09
0"
1*
1'
13
1/
1+
#1376
0*
0'
03
0/
0+
0$
#1380
0&
#1384
b1 7
19
1"
b110000100000000110 6
b110000100000000110 !
b110000100000000110 -
b1010111 #
b0 )
b0 1
1*
1'
13
1/
1+
#1392
0*
0'
03
0/
0+
1$
#1400
b1011000 #
b1 )
b1 1
b10 7
b100000000000000000 6
b100000000000000000 !
b100000000000000000 -
09
0"
1*
1'
13
1/
1+
#1408
0*
0'
03
0/
0+
0$
#1410
1&
#1416
b1 7
19
1"
b110000000000000001 6
b110000000000000001 !
b110000000000000001 -
b1011001 #
b1000 )
b1000 1
1*
1'
13
1/
1+
#1424
0*
0'
03
0/
0+
1$
#1432
b1011010 #
b0 )
b0 1
b10 7
b100000100000000000 6
b100000100000000000 !
b100000100000000000 -
09
0"
1*
1'
13
1/
1+
#1440
0*
0'
03
0/
0+
0$
0&
#1448
b1 7
19
1"
b110000100000000000 6
b110000100000000000 !
b110000100000000000 -
b1011011 #
b110 )
b110 1
1*
1'
13
1/
1+
#1456
0*
0'
03
0/
0+
1$
#1464
b1011100 #
b100 )
b100 1
b10 7
b100000011000000000 6
b100000011000000000 !
b100000011000000000 -
09
0"
1*
1'
13
1/
1+
#1470
1&
#1472
0*
0'
03
0/
0+
0$
#1480
b1 7
19
1"
b110000011000000100 6
b110000011000000100 !
b110000011000000100 -
b1011101 #
b0 )
b0 1
1*
1'
13
1/
1+
#1488
0*
0'
03
0/
0+
1$
#1496
b1011110 #
b1 )
b1 1
b10 7
b100000000000000000 6
b100000000000000000 !
b100000000000000000 -
09
0"
1*
1'
13
1/
1+
#1500
0&
#1504
0*
0'
03
0/
0+
0$
#1512
b1 7
19
1"
b110000000000000001 6
b110000000000000001 !
b110000000000000001 -
b1011111 #
b0 )
b0 1
1*
1'
13
1/
1+
#1520
0*
0'
03
0/
0+
1$
#1528
b1100000 #
b110000 )
b110000 1
b10 7
b100000000000000000 6
b100000000000000000 !
b100000000000000000 -
09
0"
1*
1'
13
1/
1+
#1530
1&
#1536
0*
0'
03
0/
0+
0$
#1544
b1 7
19
1"
b110000000000110000 6
b110000000000110000 !
b110000000000110000 -
b1100001 #
b11011 )
b11011 1
1*
1'
13
1/
1+
#1552
0*
0'
03
0/
0+
1$
#1560
b1100010 #
b10100000 )
b10100000 1
b10 7
b100001101100000000 6
b100001101100000000 !
b100001101100000000 -
09
0"
1*
1'
13
1/
1+
0&
#1568
0*
0'
03
0/
0+
0$
#1576
b1 7
19
1"
b110001101110100000 6
b110001101110100000 !
b110001101110100000 -
b1100011 #
b10100100 )
b10100100 1
1*
1'
13
1/
1+
#1584
0*
0'
03
0/
0+
1$
#1590
1&
#1592
b1100100 #
b10001110 )
b10001110 1
b10 7
b101010010000000000 6
b101010010000000000 !
b101010010000000000 -
09
0"
1*
1'
13
1/
1+
#1600
0*
0'
03
0/
0+
0$
#1608
b1 7
19
1"
b111010010010001110 6
b111010010010001110 !
b111010010010001110 -
b1100101 #
b1010 )
b1010 1
1*
1'
13
1/
1+
#1616
0*
0'
03
0/
0+
1$
#1620
0&
#1624
b1100110 #
b0 )
b0 1
b10 7
b100000101000000000 6
b100000101000000000 !
b100000101000000000 -
09
0"
1*
1'
13
1/
1+
#1632
0*
0'
03
0/
0+
0$
#1640
b1 7
19
1"
b110000101000000000 6
b110000101000000000 !
b110000101000000000 -
b1100111 #
b10101 )
b10101 1
1*
1'
13
1/
1+
#1648
0*
0'
03
0/
0+
1$
#1650
1&
#1656
b1101000 #
b1010 )
b1010 1
b10 7
b100001010100000000 6
b100001010100000000 !
b100001010100000000 -
09
0"
1*
1'
13
1/
1+
#1664
0*
0'
03
0/
0+
0$
#1672
b1 7
19
1"
b110001010100001010 6
b110001010100001010 !
b110001010100001010 -
b1101001 #
b0 )
b0 1
1*
1'
13
1/
1+
#1680
0*
0'
03
0/
0+
1$
0&
#1688
b1101010 #
b10 7
b100000000000000000 6
b100000000000000000 !
b100000000000000000 -
09
0"
1*
1'
13
1/
1+
#1696
0*
0'
03
0/
0+
0$
#1704
b1 7
19
1"
b110000000000000000 6
b110000000000000000 !
b110000000000000000 -
b1101011 #
1*
1'
13
1/
1+
#1710
1&
#1712
0*
0'
03
0/
0+
1$
#1720
b1101100 #
b10 7
b100000000000000000 6
b100000000000000000 !
b100000000000000000 -
09
0"
1*
1'
13
1/
1+
#1728
0*
0'
03
0/
0+
0$
#1736
b1 7
19
1"
b110000000000000000 6
b110000000000000000 !
b110000000000000000 -
b1101101 #
1*
1'
13
1/
1+
#1740
0&
#1744
0*
0'
03
0/
0+
1$
#1752
b1101110 #
b10 7
b100000000000000000 6
b100000000000000000 !
b100000000000000000 -
09
0"
1*
1'
13
1/
1+
#1760
0*
0'
03
0/
0+
0$
#1768
b1 7
19
1"
b110000000000000000 6
b110000000000000000 !
b110000000000000000 -
b1101111 #
b1010 )
b1010 1
1*
1'
13
1/
1+
#1770
1&
#1776
0*
0'
03
0/
0+
1$
#1784
b1110000 #
b0 )
b0 1
b10 7
b100000101000000000 6
b100000101000000000 !
b100000101000000000 -
09
0"
1*
1'
13
1/
1+
#1792
0*
0'
03
0/
0+
0$
#1800
b1 7
19
1"
b110000101000000000 6
b110000101000000000 !
b110000101000000000 -
b1110001 #
b10101 )
b10101 1
1*
1'
13
1/
1+
0&
#1808
0*
0'
03
0/
0+
1$
#1816
b1110010 #
b1100011 )
b1100011 1
b10 7
b100001010100000000 6
b100001010100000000 !
b100001010100000000 -
09
0"
1*
1'
13
1/
1+
#1824
0*
0'
03
0/
0+
0$
#1830
1&
#1832
b1 7
19
1"
b110001010101100011 6
b110001010101100011 !
b110001010101100011 -
b1110011 #
b0 )
b0 1
1*
1'
13
1/
1+
#1840
0*
0'
03
0/
0+
1$
#1848
b1110100 #
b10 7
b100000000000000000 6
b100000000000000000 !
b100000000000000000 -
09
0"
1*
1'
13
1/
1+
#1856
0*
0'
03
0/
0+
0$
#1860
0&
#1864
b1 7
19
1"
b110000000000000000 6
b110000000000000000 !
b110000000000000000 -
b1110101 #
1*
1'
13
1/
1+
#1872
0*
0'
03
0/
0+
1$
#1880
b1110110 #
b10 7
b100000000000000000 6
b100000000000000000 !
b100000000000000000 -
09
0"
1*
1'
13
1/
1+
#1888
0*
0'
03
0/
0+
0$
#1890
1&
#1896
b1 7
19
1"
b110000000000000000 6
b110000000000000000 !
b110000000000000000 -
b1110111 #
1*
1'
13
1/
1+
#1904
0*
0'
03
0/
0+
1$
#1912
b1111000 #
b10 7
b100000000000000000 6
b100000000000000000 !
b100000000000000000 -
09
0"
1*
1'
13
1/
1+
#1920
0*
0'
03
0/
0+
0$
0&
#1928
b1 7
19
1"
b110000000000000000 6
b110000000000000000 !
b110000000000000000 -
b1111001 #
1*
1'
13
1/
1+
#1936
0*
0'
03
0/
0+
1$
#1944
b1111010 #
b10 7
b100000000000000000 6
b100000000000000000 !
b100000000000000000 -
09
0"
1*
1'
13
1/
1+
#1950
1&
#1952
0*
0'
03
0/
0+
0$
#1960
b1 7
19
1"
b110000000000000000 6
b110000000000000000 !
b110000000000000000 -
b1111011 #
1*
1'
13
1/
1+
#1968
0*
0'
03
0/
0+
1$
#1976
b1111100 #
b10 7
b100000000000000000 6
b100000000000000000 !
b100000000000000000 -
09
0"
1*
1'
13
1/
1+
#1980
0&
#1984
0*
0'
03
0/
0+
0$
#1992
b1 7
19
1"
b110000000000000000 6
b110000000000000000 !
b110000000000000000 -
b1111101 #
1*
1'
13
1/
1+
#2000
0*
0'
03
0/
0+
1$
#2008
b1111110 #
b10 7
b100000000000000000 6
b100000000000000000 !
b100000000000000000 -
09
0"
1*
1'
13
1/
1+
#2010
1&
#2016
0*
0'
03
0/
0+
0$
#2024
b1 7
19
1"
b110000000000000000 6
b110000000000000000 !
b110000000000000000 -
b1111111 #
1*
1'
13
1/
1+
#2032
0*
0'
03
0/
0+
1$
#2040
b10000000 #
b10 7
b100000000000000000 6
b100000000000000000 !
b100000000000000000 -
09
0"
1*
1'
13
1/
1+
0&
#2048
0*
0'
03
0/
0+
0$
#2056
b1 7
19
1"
b110000000000000000 6
b110000000000000000 !
b110000000000000000 -
b10000001 #
1*
1'
13
1/
1+
#2064
0*
0'
03
0/
0+
1$
#2070
1&
#2072
b10000010 #
b10 7
b100000000000000000 6
b100000000000000000 !
b100000000000000000 -
09
0"
1*
1'
13
1/
1+
#2080
0*
0'
03
0/
0+
0$
#2088
b1 7
19
1"
b110000000000000000 6
b110000000000000000 !
b110000000000000000 -
b10000011 #
1*
1'
13
1/
1+
#2096
0*
0'
03
0/
0+
1$
#2100
0&
#2104
b10000100 #
b10 7
b100000000000000000 6
b100000000000000000 !
b100000000000000000 -
09
0"
1*
1'
13
1/
1+
#2112
0*
0'
03
0/
0+
0$
#2120
b1 7
19
1"
b110000000000000000 6
b110000000000000000 !
b110000000000000000 -
b10000101 #
b10001 )
b10001 1
1*
1'
13
1/
1+
#2128
0*
0'
03
0/
0+
1$
#2130
1&
#2136
b10000110 #
b100010 )
b100010 1
b10 7
b100001000100000000 6
b100001000100000000 !
b100001000100000000 -
09
0"
1*
1'
13
1/
1+
#2144
0*
0'
03
0/
0+
0$
#2152
b1 7
19
1"
b110001000100100010 6
b110001000100100010 !
b110001000100100010 -
b10000111 #
b110011 )
b110011 1
1*
1'
13
1/
1+
#2160
0*
0'
03
0/
0+
1$
0&
#2168
b10001000 #
b1000100 )
b1000100 1
b10 7
b100011001100000000 6
b100011001100000000 !
b100011001100000000 -
09
0"
1*
1'
13
1/
1+
#2176
0*
0'
03
0/
0+
0$
#2184
b1 7
19
1"
b110011001101000100 6
b110011001101000100 !
b110011001101000100 -
b10001001 #
0(
00
b0 )
b0 1
1*
1'
13
1/
1+
#2190
1&
#2192
0*
0'
03
0/
0+
1$
#2200
b10001010 #
b11 4
b0 6
b0 !
b0 -
b1 8
b0 7
19
1"
1*
1'
13
1/
1+
#2208
0*
0'
03
0/
0+
0$
#2216
b10 4
19
1"
b10001011 #
1*
1'
13
1/
1+
#2220
0&
#2224
0*
0'
03
0/
0+
1$
#2232
b10001100 #
b1 4
19
1"
1*
1'
13
1/
1+
#2240
0*
0'
03
0/
0+
0$
#2248
b0 4
19
1"
b10001101 #
1*
1'
13
1/
1+
#2250
1&
#2256
0*
0'
03
0/
0+
1$
#2264
b10001110 #
09
0"
1*
1'
13
1/
1+
#2272
0*
0'
03
0/
0+
0$
#2280
b10001111 #
1*
1'
13
1/
1+
0&
#2288
0*
0'
03
0/
0+
1$
#2296
b10010000 #
1*
1'
13
1/
1+
#2304
0*
0'
03
0/
0+
0$
#2310
1&
#2312
b10010001 #
1*
1'
13
1/
1+
#2320
0*
0'
03
0/
0+
1$
#2328
b10010010 #
1*
1'
13
1/
1+
#2336
0*
0'
03
0/
0+
0$
#2340
0&
#2344
b10010011 #
1*
1'
13
1/
1+
#2352
0*
0'
03
0/
0+
1$
#2360
b10010100 #
1*
1'
13
1/
1+
#2368
0*
0'
03
0/
0+
0$
#2370
1&
#2376
b10010101 #
1*
1'
13
1/
1+
#2384
0*
0'
03
0/
0+
1$
#2392
b10010110 #
1*
1'
13
1/
1+
#2400
0*
0'
03
0/
0+
0$
0&
#2408
b10010111 #
1*
1'
13
1/
1+
#2416
0*
0'
03
0/
0+
1$
#2424
b10011000 #
1*
1'
13
1/
1+
#2430
1&
#2432
0*
0'
03
0/
0+
0$
#2440
b10011001 #
1*
1'
13
1/
1+
#2448
0*
0'
03
0/
0+
1$
#2456
b10011010 #
1*
1'
13
1/
1+
#2460
0&
#2464
0*
0'
03
0/
0+
0$
#2472
b10011011 #
1*
1'
13
1/
1+
#2480
0*
0'
03
0/
0+
1$
#2488
b10011100 #
1*
1'
13
1/
1+
#2490
1&
#2496
0*
0'
03
0/
0+
0$
#2504
b10011101 #
1*
1'
13
1/
1+
#2512
0*
0'
03
0/
0+
1$
#2520
b10011110 #
1*
1'
13
1/
1+
0&
#2528
0*
0'
03
0/
0+
0$
#2536
b10011111 #
1*
1'
13
1/
1+
#2544
0*
0'
03
0/
0+
1$
#2550
1&
#2552
b10100000 #
1*
1'
13
1/
1+
#2560
0*
0'
03
0/
0+
0$
#2568
b10100001 #
1*
1'
13
1/
1+
#2576
0*
0'
03
0/
0+
1$
#2580
0&
#2584
b10100010 #
1*
1'
13
1/
1+
#2592
0*
0'
03
0/
0+
0$
#2600
b10100011 #
1*
1'
13
1/
1+
#2608
0*
0'
03
0/
0+
1$
#2610
1&
#2616
b10100100 #
1*
1'
13
1/
1+
#2624
0*
0'
03
0/
0+
0$
#2632
b10100101 #
1*
1'
13
1/
1+
#2640
0*
0'
03
0/
0+
1$
0&
#2648
b10100110 #
1*
1'
13
1/
1+
#2656
0*
0'
03
0/
0+
0$
#2664
b10100111 #
1*
1'
13
1/
1+
#2670
1&
#2672
0*
0'
03
0/
0+
1$
#2680
b10101000 #
1*
1'
13
1/
1+
#2688
0*
0'
03
0/
0+
0$
#2696
b10101001 #
1*
1'
13
1/
1+
#2700
0&
#2704
0*
0'
03
0/
0+
1$
#2712
b10101010 #
1*
1'
13
1/
1+
#2720
0*
0'
03
0/
0+
0$
#2728
b10101011 #
1*
1'
13
1/
1+
#2730
1&
#2736
0*
0'
03
0/
0+
1$
#2744
b10101100 #
1*
1'
13
1/
1+
#2752
0*
0'
03
0/
0+
0$
#2760
b10101101 #
1*
1'
13
1/
1+
0&
#2768
0*
0'
03
0/
0+
1$
#2776
b10101110 #
1*
1'
13
1/
1+
#2784
0*
0'
03
0/
0+
0$
#2790
1&
#2792
b10101111 #
1*
1'
13
1/
1+
#2800
0*
0'
03
0/
0+
1$
#2808
b10110000 #
1*
1'
13
1/
1+
#2816
0*
0'
03
0/
0+
0$
#2820
0&
#2824
b10110001 #
1*
1'
13
1/
1+
#2832
0*
0'
03
0/
0+
1$
#2840
b10110010 #
1*
1'
13
1/
1+
#2848
0*
0'
03
0/
0+
0$
#2850
1&
#2856
b10110011 #
1*
1'
13
1/
1+
#2864
0*
0'
03
0/
0+
1$
#2872
b10110100 #
1*
1'
13
1/
1+
#2880
0*
0'
03
0/
0+
0$
0&
#2888
b10110101 #
1*
1'
13
1/
1+
#2896
0*
0'
03
0/
0+
1$
#2904
b10110110 #
1*
1'
13
1/
1+
#2910
1&
#2912
0*
0'
03
0/
0+
0$
#2920
b10110111 #
1*
1'
13
1/
1+
#2928
0*
0'
03
0/
0+
1$
#2936
b10111000 #
1*
1'
13
1/
1+
#2940
0&
#2944
0*
0'
03
0/
0+
0$
#2952
b10111001 #
1*
1'
13
1/
1+
#2960
0*
0'
03
0/
0+
1$
#2968
b10111010 #
1*
1'
13
1/
1+
#2970
1&
#2976
0*
0'
03
0/
0+
0$
#2984
b10111011 #
1*
1'
13
1/
1+
#2992
0*
0'
03
0/
0+
1$
#3000
b10111100 #
1*
1'
13
1/
1+
0&
#3008
0*
0'
03
0/
0+
0$
#3016
b10111101 #
1*
1'
13
1/
1+
#3024
0*
0'
03
0/
0+
1$
#3030
1&
#3032
b10111110 #
1*
1'
13
1/
1+
#3040
0*
0'
03
0/
0+
0$
#3048
b10111111 #
1*
1'
13
1/
1+
#3056
0*
0'
03
0/
0+
1$
#3060
0&
#3064
b11000000 #
1*
1'
13
1/
1+
#3072
0*
0'
03
0/
0+
0$
#3080
b11000001 #
1*
1'
13
1/
1+
#3088
0*
0'
03
0/
0+
1$
#3090
1&
#3096
b11000010 #
1*
1'
13
1/
1+
#3104
0*
0'
03
0/
0+
0$
#3112
b11000011 #
1*
1'
13
1/
1+
#3120
0*
0'
03
0/
0+
1$
0&
#3128
b11000100 #
1*
1'
13
1/
1+
#3136
0*
0'
03
0/
0+
0$
#3144
b11000101 #
1*
1'
13
1/
1+
#3150
1&
#3152
0*
0'
03
0/
0+
1$
#3160
b11000110 #
1*
1'
13
1/
1+
#3168
0*
0'
03
0/
0+
0$
#3176
b11000111 #
1*
1'
13
1/
1+
#3180
0&
#3184
0*
0'
03
0/
0+
1$
#3192
b11001000 #
1*
1'
13
1/
1+
#3200
0*
0'
03
0/
0+
0$
#3208
b11001001 #
x(
x0
bx )
bx 1
1*
1'
13
1/
1+
#3210
1&
#3216
0*
0'
03
0/
0+
1$
#3224
b11001010 #
1*
1'
13
1/
1+
#3232
0*
0'
03
0/
0+
0$
#3240
b11001011 #
1*
1'
13
1/
1+
0&
#3248
0*
0'
03
0/
0+
1$
#3256
b11001100 #
1*
1'
13
1/
1+
#3264
0*
0'
03
0/
0+
0$
#3270
1&
#3272
b11001101 #
1*
1'
13
1/
1+
#3280
0*
0'
03
0/
0+
1$
#3288
b11001110 #
1*
1'
13
1/
1+
#3296
0*
0'
03
0/
0+
0$
#3300
0&
#3304
b11001111 #
1*
1'
13
1/
1+
#3312
0*
0'
03
0/
0+
1$
#3320
b11010000 #
1*
1'
13
1/
1+
#3328
0*
0'
03
0/
0+
0$
#3330
1&
#3336
b11010001 #
1*
1'
13
1/
1+
#3344
0*
0'
03
0/
0+
1$
#3352
b11010010 #
1*
1'
13
1/
1+
#3360
0*
0'
03
0/
0+
0$
0&
#3368
b11010011 #
1*
1'
13
1/
1+
#3376
0*
0'
03
0/
0+
1$
#3384
b11010100 #
1*
1'
13
1/
1+
#3390
1&
#3392
0*
0'
03
0/
0+
0$
#3400
b11010101 #
1*
1'
13
1/
1+
#3408
0*
0'
03
0/
0+
1$
#3416
b11010110 #
1*
1'
13
1/
1+
#3420
0&
#3424
0*
0'
03
0/
0+
0$
#3432
b11010111 #
1*
1'
13
1/
1+
#3440
0*
0'
03
0/
0+
1$
#3448
b11011000 #
1*
1'
13
1/
1+
#3450
1&
#3456
0*
0'
03
0/
0+
0$
#3464
b11011001 #
1*
1'
13
1/
1+
#3472
0*
0'
03
0/
0+
1$
#3480
b11011010 #
1*
1'
13
1/
1+
0&
#3488
0*
0'
03
0/
0+
0$
#3496
b11011011 #
1*
1'
13
1/
1+
#3504
0*
0'
03
0/
0+
1$
#3510
1&
#3512
b11011100 #
1*
1'
13
1/
1+
#3520
0*
0'
03
0/
0+
0$
#3528
b11011101 #
1*
1'
13
1/
1+
#3536
0*
0'
03
0/
0+
1$
#3540
0&
#3544
b11011110 #
1*
1'
13
1/
1+
#3552
0*
0'
03
0/
0+
0$
#3560
b11011111 #
1*
1'
13
1/
1+
#3568
0*
0'
03
0/
0+
1$
#3570
1&
#3576
b11100000 #
1*
1'
13
1/
1+
#3584
0*
0'
03
0/
0+
0$
#3592
b11100001 #
1*
1'
13
1/
1+
#3600
0*
0'
03
0/
0+
1$
0&
#3608
b11100010 #
1*
1'
13
1/
1+
#3616
0*
0'
03
0/
0+
0$
#3624
b11100011 #
1*
1'
13
1/
1+
#3630
1&
#3632
0*
0'
03
0/
0+
1$
#3640
b11100100 #
1*
1'
13
1/
1+
#3648
0*
0'
03
0/
0+
0$
#3656
b11100101 #
1*
1'
13
1/
1+
#3660
0&
#3664
0*
0'
03
0/
0+
1$
#3672
b11100110 #
1*
1'
13
1/
1+
